*************************************************
*               NEW RUN OF PROGRAM              *
*************************************************
Generation Number    Solution Vector
-----------------    ----------------------------
39                    <1 5 7 10 6 11 2 0 3 8 4 9 >

*************************************************
*               NEW RUN OF PROGRAM              *
*************************************************
Generation Number    Solution Vector
-----------------    ----------------------------
43                    <1 7 9 6 2 0 8 11 5 3 10 4 >

*************************************************
*               NEW RUN OF PROGRAM              *
*************************************************
Generation Number    Solution Vector
-----------------    ----------------------------
999                    <7 0 6 3 1 5 11 9 4 10 8 2 >

*************************************************
*               NEW RUN OF PROGRAM              *
*************************************************
Generation Number    Solution Vector
-----------------    ----------------------------
20                    <6 2 9 5 0 10 4 7 11 8 3 1 >

*************************************************
*               NEW RUN OF PROGRAM              *
*************************************************
Generation Number    Solution Vector
-----------------    ----------------------------
50                    <7 5 1 9 0 6 3 10 2 11 8 4 >

*************************************************
*               NEW RUN OF PROGRAM              *
*************************************************
Generation Number    Solution Vector
-----------------    ----------------------------
999                    <7 2 6 8 3 1 9 5 10 0 4 11 >

*************************************************
*               NEW RUN OF PROGRAM              *
*************************************************
Generation Number    Solution Vector
-----------------    ----------------------------
999                    <4 6 10 5 1 8 0 2 3 7 9 11 >

*************************************************
*               NEW RUN OF PROGRAM              *
*************************************************
Generation Number    Solution Vector
-----------------    ----------------------------
999                    <7 3 10 6 9 0 4 11 2 5 1 8 >

*************************************************
*               NEW RUN OF PROGRAM              *
*************************************************
Generation Number    Solution Vector
-----------------    ----------------------------
999                    <10 1 4 6 3 9 11 8 0 2 7 5 >

*************************************************
*               NEW RUN OF PROGRAM              *
*************************************************
Generation Number    Solution Vector
-----------------    ----------------------------
34                    <7 1 6 0 5 10 8 3 11 4 2 9 >

*************************************************
*               NEW RUN OF PROGRAM              *
*************************************************
Generation Number    Solution Vector
-----------------    ----------------------------
999                    <5 9 8 4 11 1 6 2 10 7 3 0 >

*************************************************
*               NEW RUN OF PROGRAM              *
*************************************************
Generation Number    Solution Vector
-----------------    ----------------------------
999                    <6 9 7 1 11 2 8 10 0 4 3 5 >

*************************************************
*               NEW RUN OF PROGRAM              *
*************************************************
Generation Number    Solution Vector
-----------------    ----------------------------
5                    <11 2 5 3 9 7 10 1 6 8 0 4 >

*************************************************
*               NEW RUN OF PROGRAM              *
*************************************************
Generation Number    Solution Vector
-----------------    ----------------------------
65                    <7 5 11 1 6 0 2 10 8 3 9 4 >

*************************************************
*               NEW RUN OF PROGRAM              *
*************************************************
Generation Number    Solution Vector
-----------------    ----------------------------
999                    <0 5 9 7 1 8 11 2 10 3 6 4 >

*************************************************
*               NEW RUN OF PROGRAM              *
*************************************************
Generation Number    Solution Vector
-----------------    ----------------------------
999                    <7 1 11 5 10 0 4 2 9 3 6 8 >

*************************************************
*               NEW RUN OF PROGRAM              *
*************************************************
Generation Number    Solution Vector
-----------------    ----------------------------
199                    <3 5 0 4 10 7 11 1 8 6 9 2 >

*************************************************
*               NEW RUN OF PROGRAM              *
*************************************************
Generation Number    Solution Vector
-----------------    ----------------------------
999                    <3 8 2 4 10 1 9 6 0 11 7 5 >

*************************************************
*               NEW RUN OF PROGRAM              *
*************************************************
Generation Number    Solution Vector
-----------------    ----------------------------
999                    <7 0 2 6 8 1 11 4 10 3 5 9 >

*************************************************
*               NEW RUN OF PROGRAM              *
*************************************************
Generation Number    Solution Vector
-----------------    ----------------------------
999                    <4 8 5 2 9 10 0 7 3 11 6 1 >

*************************************************
*               NEW RUN OF PROGRAM              *
*************************************************
Generation Number    Solution Vector
-----------------    ----------------------------
32                    <8 4 0 9 3 6 10 7 1 11 5 2 >

*************************************************
*               NEW RUN OF PROGRAM              *
*************************************************
Generation Number    Solution Vector
-----------------    ----------------------------
50                    <2 9 6 10 5 1 11 0 3 7 4 8 >

*************************************************
*               NEW RUN OF PROGRAM              *
*************************************************
Generation Number    Solution Vector
-----------------    ----------------------------
22                    <3 0 8 5 1 10 6 11 9 7 4 2 >

*************************************************
*               NEW RUN OF PROGRAM              *
*************************************************
Generation Number    Solution Vector
-----------------    ----------------------------
999                    <8 1 3 6 9 7 4 11 0 2 5 10 >

*************************************************
*               NEW RUN OF PROGRAM              *
*************************************************
Generation Number    Solution Vector
-----------------    ----------------------------
396                    <3 7 2 11 8 1 4 0 10 6 9 5 >

